<?xml version="1.0" encoding="UTF-8" standalone="no"?>
<!-- Created with Inkscape (http://www.inkscape.org/) -->

<svg
   xmlns:dc="http://purl.org/dc/elements/1.1/"
   xmlns:cc="http://creativecommons.org/ns#"
   xmlns:rdf="http://www.w3.org/1999/02/22-rdf-syntax-ns#"
   xmlns:svg="http://www.w3.org/2000/svg"
   xmlns="http://www.w3.org/2000/svg"
   xmlns:sodipodi="http://sodipodi.sourceforge.net/DTD/sodipodi-0.dtd"
   xmlns:inkscape="http://www.inkscape.org/namespaces/inkscape"
   width="210mm"
   height="297mm"
   viewBox="0 0 210 297"
   version="1.1"
   id="svg8"
   inkscape:version="0.92.2 2405546, 2018-03-11"
   sodipodi:docname="logo.svg">
  <defs
     id="defs2" />
  <sodipodi:namedview
     id="base"
     pagecolor="#ffffff"
     bordercolor="#666666"
     borderopacity="1.0"
     inkscape:pageopacity="0.0"
     inkscape:pageshadow="2"
     inkscape:zoom="0.98994949"
     inkscape:cx="23.672697"
     inkscape:cy="555.2181"
     inkscape:document-units="mm"
     inkscape:current-layer="layer1"
     showgrid="false"
     inkscape:window-width="2848"
     inkscape:window-height="1728"
     inkscape:window-x="2416"
     inkscape:window-y="2096"
     inkscape:window-maximized="0" />
  <metadata
     id="metadata5">
    <rdf:RDF>
      <cc:Work
         rdf:about="">
        <dc:format>image/svg+xml</dc:format>
        <dc:type
           rdf:resource="http://purl.org/dc/dcmitype/StillImage" />
        <dc:title></dc:title>
      </cc:Work>
    </rdf:RDF>
  </metadata>
  <g
     inkscape:label="Layer 1"
     inkscape:groupmode="layer"
     id="layer1">
    <text
       xml:space="preserve"
       style="font-style:normal;font-weight:300;font-size:33.03622909px;line-height:1.25;font-family:'Open Sans';letter-spacing:0px;word-spacing:0px;fill:#000000;fill-opacity:1;stroke:none;stroke-width:0.8259086;-inkscape-font-specification:'Open Sans, Light';font-stretch:normal;font-variant:normal;text-anchor:start;text-align:start;writing-mode:lr;font-variant-ligatures:normal;font-variant-caps:normal;font-variant-numeric:normal;font-feature-settings:normal;"
       x="16.237957"
       y="141.93507"
       id="text3715"><tspan
         sodipodi:role="line"
         id="tspan3713"
         x="16.237957"
         y="141.93507"
         style="font-style:normal;font-variant:normal;font-weight:300;font-stretch:normal;font-size:33.03622909px;font-family:'Open Sans';-inkscape-font-specification:'Open Sans, Light';font-variant-ligatures:normal;font-variant-caps:normal;font-variant-numeric:normal;font-feature-settings:normal;text-align:start;writing-mode:lr;text-anchor:start;stroke-width:0.8259086;"><tspan
   style="fill:#1976d2;fill-opacity:1;-inkscape-font-specification:'Open Sans, Light';font-family:'Open Sans';font-weight:300;font-style:normal;font-stretch:normal;font-variant:normal;font-size:33.03622909px;text-anchor:start;text-align:start;writing-mode:lr;font-variant-ligatures:normal;font-variant-caps:normal;font-variant-numeric:normal;font-feature-settings:normal;"
   id="tspan4570">Hyp</tspan><tspan
   style="fill:#ffab00;fill-opacity:1;-inkscape-font-specification:'Open Sans, Semi-Bold';font-family:'Open Sans';font-weight:600;font-style:normal;font-stretch:normal;font-variant:normal;font-size:33.03622909px;text-anchor:start;text-align:start;writing-mode:lr;font-variant-ligatures:normal;font-variant-caps:normal;font-variant-numeric:normal;font-feature-settings:normal"
   id="tspan3733">AR</tspan> <tspan
   style="fill:#1976d2;fill-opacity:1;-inkscape-font-specification:'Open Sans, Light';font-family:'Open Sans';font-weight:300;font-style:normal;font-stretch:normal;font-variant:normal;font-size:33.03622909px;text-anchor:start;text-align:start;writing-mode:lr;font-variant-ligatures:normal;font-variant-caps:normal;font-variant-numeric:normal;font-feature-settings:normal;"
   id="tspan4572">Map</tspan></tspan></text>
    <flowRoot
       xml:space="preserve"
       id="flowRoot3717"
       style="fill:black;fill-opacity:1;stroke:none;font-family:sans-serif;font-style:normal;font-weight:normal;font-size:40px;line-height:1.25;letter-spacing:0px;word-spacing:0px"><flowRegion
         id="flowRegion3719"><rect
           id="rect3721"
           width="18.182745"
           height="51.51778"
           x="461.63971"
           y="368.94589" /></flowRegion><flowPara
         id="flowPara3723"></flowPara></flowRoot>    <flowRoot
       xml:space="preserve"
       id="flowRoot3725"
       style="fill:black;fill-opacity:1;stroke:none;font-family:sans-serif;font-style:normal;font-weight:normal;font-size:40px;line-height:1.25;letter-spacing:0px;word-spacing:0px"><flowRegion
         id="flowRegion3727"><rect
           id="rect3729"
           width="280.82242"
           height="41.416256"
           x="120.20815"
           y="206.31133" /></flowRegion><flowPara
         id="flowPara3731"></flowPara></flowRoot>  </g>
</svg>
